-1.07E-15	-0.24682007
0.347178539	0.188514295
1.262078289	1.001765321
1.006381513	0.701999553
0.395164826	0.085885397
-0.007318069	-0.179580743
-0.089051191	-0.345567177
-0.042702912	-0.245217822
-0.004305162	-0.310949294
0.005698372	-0.545863277
-6.95E-07	-0.152893334
0.347178585	0.417336418
1.262078345	1.372799623
1.006381563	1.265700107
0.395164666	0.672607222
-0.007318056	0.385720286
-0.089051225	0.245680469
-0.042702916	0.241737535
-0.004304959	0.331194549
0.005698306	0.275797488
0.00346459	0.262913943
0.347593544	0.557180623
1.261892959	1.407627141
1.006260052	1.118123455
0.395146419	0.56393665
-0.007280324	0.278435289
-0.089020982	0.331732492
-0.042693529	0.224469254
-0.004305629	0.224580716
0.005696623	0.180648953
-6.95E-07	-0.152893334
0.347178585	0.417336418
1.262078345	1.372799623
1.006381563	1.265700107
0.395164666	0.672607222
-0.007318056	0.385720286
-0.089051225	0.245680469
-0.042702916	0.241737535
-0.004304959	0.331194549
0.005698306	0.275797488
0.00346459	0.262913943
0.347593544	0.557180623
1.261892959	1.407627141
1.006260052	1.118123455
0.395146419	0.56393665
-0.007280324	0.278435289
-0.089020982	0.331732492
-0.042693529	0.224469254
-0.004305629	0.224580716
0.005696623	0.180648953
0.003463983	0.099789555
0.34759359	0.372298692
1.261893059	1.178930202
1.006260263	0.995042166
0.395146495	0.306546865
-0.007280591	-0.025459944
-0.089021185	-0.121231088
-0.042693954	-0.080573668
-0.004305652	-0.018757839
0.005696721	0.103579266
8.62E-15	-0.358386962
0.347178553	0.108396418
1.262078129	1.089453271
1.006381437	0.819538436
0.395164642	0.385681265
-0.007317917	0.013875663
-0.089051063	0.020144247
-0.042702744	-0.027266478
-0.00430516	-0.024590879
0.005698312	-0.159957488
0.003464624	-0.202133816
0.347593561	0.092020489
1.26189298	0.930426028
1.006260096	0.646164888
0.39514646	0.161937924
-0.007280534	-0.33968702
-0.089021252	-0.336429422
-0.042693749	-0.220118509
-0.004305593	-0.130956465
0.005696634	0.005397639
0.003463977	-0.225591378
0.347593576	-0.003626532
1.261892955	0.828911217
1.006259973	0.664281123
0.395146428	0.130946124
-0.00728043	-0.263182118
-0.089021073	-0.29379442
-0.042693674	-0.188411563
-0.004305479	-0.285646388
0.005696604	-0.418780648
1.36E-10	-0.226091902
0.347178543	0.152363976
1.26207812	1.137551089
1.006381248	0.689249276
0.395164607	0.195796851
-0.007317964	-0.322321507
-0.089051313	-0.240098785
-0.042703069	0.025891826
-0.00430501	-0.136607172
0.005698373	-0.00902262
0.003464606	-0.082146789
0.347593514	0.323649227
1.261892967	1.252857824
1.006260215	0.871700767
0.395146511	0.284676929
-0.00728045	-0.137548107
-0.089021062	-0.325766211
-0.042693648	-0.348027677
-0.004305609	-0.121892554
0.005696691	-0.101162002
0.003463938	0.006631632
0.347593579	0.417942301
1.261893077	1.265092465
1.00626017	1.107368734
0.395146526	0.482218406
-0.007280462	0.176771082
-0.089021278	0.09665637
-0.042693917	-0.055243445
-0.004305551	-0.168250965
0.005696664	-0.183655502
-6.95E-07	0.086395442
0.347178579	0.403832716
1.262078081	1.341320879
1.00638117	0.964821905
0.395164542	0.334851533
-0.007317902	0.038659026
-0.08905117	-0.007009834
-0.042702859	0.29100511
-0.00430503	0.341503817
0.005698292	0.367300518
0.003464592	0.293767292
0.347593523	0.525268019
1.261892976	1.336159153
1.006260106	1.049759416
0.39514647	0.456191511
-0.007280533	-0.019902374
-0.089021262	-0.181149846
-0.042693718	-0.229013193
-0.004305599	-0.205780426
0.005696702	-0.061146707
1.36E-10	-0.244908964
0.347178572	0.087900524
1.262078098	1.088138567
1.006381254	0.821842345
0.395164614	0.502711382
-0.007317884	0.313908052
-0.089051109	0.109770655
-0.042702919	0.070033617
-0.004305164	0.174793822
0.005698379	0.10787955
-6.95E-07	-0.026400272
0.34717858	0.426185551
1.262078267	1.296283023
1.006381475	0.850197556
0.395164623	0.10569777
-0.007317896	-0.325985012
-0.089051166	-0.276158528
-0.042702886	-0.317270721
-0.004304965	-0.500195913
0.00569826	-0.478591877
0.003464573	-0.466959114
0.347593544	-0.080257277
1.261892925	0.852024912
1.006260106	0.618081423
0.39514645	-0.042441209
-0.007280406	-0.384710384
-0.089021087	-0.321375189
-0.042693716	-0.37076647
-0.004305416	-0.465886179
0.005696656	-0.468395273
0.003463972	-0.673912112
0.347593589	-0.282164159
1.261893016	0.749544476
1.006260038	0.58235909
0.395146448	0.044711238
-0.007280565	-0.275371266
-0.089021217	-0.246039974
-0.042693806	-0.290498439
-0.004305548	-0.161104381
0.005696624	-0.239592147
8.62E-15	0.324655931
0.347178564	0.776882489
1.262078184	1.779210148
1.006381324	1.300238333
0.395164622	0.653846115
-0.007318064	0.134447495
-0.089051285	-0.112282135
-0.042702904	-0.132648757
-0.004305122	-0.156618133
0.005698222	-0.259100781
-6.95E-07	-0.259830186
0.34717858	0.144945717
1.262078146	1.193330589
1.006381242	0.85508898
0.395164592	0.257262183
-0.007317891	-0.290034802
-0.089051041	-0.271292363
-0.042702862	-0.228789304
-0.004305108	0.010627065
0.005698332	0.108573615
-3.26E-14	0.428894886
0.347178535	0.750120043
1.262078133	1.527878135
1.006381271	1.240150255
0.395164609	0.745626741
-0.007317991	0.446818022
-0.0890514	0.473750517
-0.042702919	0.355254276
-0.004304968	0.399525584
0.005698457	0.369877178
0.00346465	0.318718857
0.347593528	0.676933266
1.261892825	1.528818089
1.006259847	1.194524295
0.395146422	0.491183858
-0.007280473	0.031857021
-0.089021161	-0.150994076
-0.04269377	0.107845961
-0.004305624	0.069696494
0.005696639	0.350498168
0.003463985	0.435092149
0.347593581	0.680857752
1.261893168	1.452214199
1.006260182	0.963510802
0.395146426	0.101328019
-0.007280376	-0.146985474
-0.089021064	-0.210478089
-0.042693723	-0.109035163
-0.004305526	-0.077461183
0.005696609	-0.045753086