300	1	0
302	0	0
304	0	0
306	0	0
308	0	0
310	0	0
312	0	0
314	0	0
316	0	0
318	0	0
308	0	0
310	0	0
312	0	0
314	0	0
316	0	0
318	0	0
308	0	0
310	0	0
312	0	0
314	0	0
316	0	0
318	0	0
308	0	0
310	0	0
312	0	0
314	0	0
316	0	0
318	0	0
308	0	0
320	0	1
342	0	0
344	0	0
346	0	0
348	0	0
350	0	0
352	0	0
354	0	0
356	0	0
358	0	0
308	0	0
310	0	0
312	0	0
314	0	0
316	0	0
318	0	0
308	0	0
310	0	0
312	0	0
314	0	0
316	0	0
318	0	0
342	0	0
344	0	0
346	0	0
348	0	0
350	0	0
352	0	0
354	0	0
356	0	0
358	0	0